Geocode Brazilian addresses — geocode • geocodebr
…
data_path <- system.file("extdata/small_sample.csv", package = "geocodebr")
input_df <- read.csv(data_path)

fields <- setup_address_fields(
  logradouro = "nm_logradouro",
  numero = "Numero",
  cep = "Cep",
  bairro = "Bairro",
  municipio = "nm_municipio",
  estado = "nm_uf"
)

df <- geocode(input_df, address_fields = fields, progress = FALSE)
df
#> # A tibble: 28 × 12
#>       id Complemento code_muni nm_logradouro    Numero Cep   Bairro nm_municipio
#>    <int> <chr>           <int> <chr>             <int> <chr> <chr>  <chr>       
#>  1     1 CASA          3303500 RUA MARIA LUCIA…     17 2604… SANTA… NOVA IGUACU 
#>  2     2 FUNDOS        3301702 RUA LEOPOLDINA …     46 2503… CENTE… DUQUE DE CA…
#>  3     3 CASA          3300100 RUA DONA JUDITE       0 2391… CAPUT… ANGRA DOS R…
#>  4     4 QUADRA        3304557 RUA ALEXANDRE A…      0 2309… SANTI… RIO DE JANE…
#>  5     5 CASA          3302601 AVENIDA E           300 2386… PRAIA… MANGARATIBA 
#>  6     6 APARTAMENTO   1200401 RUA PRINCESA IS…    263 6992… ESTAC… RIO BRANCO  
#>  7     7 NA            1200203 CAMINHO SEM DEN…   2530 6998… MIRIT… CRUZEIRO DO…
#>  8     8 NA            1200401 RUA DO LIMAO        268 6992… MOCIN… RIO BRANCO  
#>  9     9 FUNDOS        1200401 RUA GERALDO MES…      0 6991… NOVA … RIO BRANCO  
#> 10    10 NA            1200450 AVENIDA CASTELO…   3875 6992… DEMOC… SENADOR GUI…
#> # ℹ 18 more rows
#> # ℹ 4 more variables: nm_uf <chr>, match_type <chr>, lon <dbl>, lat <dbl>
…
